<?xml version="1.0" encoding="UTF-8"?>
<svg width="475px" height="63px" viewBox="0 0 475 63" version="1.1" xmlns="http://www.w3.org/2000/svg">
    <!-- Generator: Sketch 55.1 (78136) - https://sketchapp.com -->
    <title>Group</title>
    <desc>Created with Sketch.</desc>
    <g id="Page-1" stroke="none" stroke-width="1" fill="none" fill-rule="evenodd" stroke-linecap="round">
        <g id="Group" transform="translate(2.999894, -9.006093)" stroke="#7457ff" stroke-width="10">
            <path d="M1.50010636,58.5060932 C79.1443772,36.1727599 156.977711,25.0060932 235.000106,25.0060932 C313.022502,25.0060932 390.355836,30.6727599 467.000106,42.0060932" id="Line" transform="translate(234.250106, 41.756093) rotate(-2.000000) translate(-234.250106, -41.756093) "></path>
            <path d="M1,50.5 C78.6442709,28.1666667 156.477604,17 234.5,17 C312.522396,17 389.972124,25.3800518 466.849186,42.1401553" id="Line" transform="translate(233.924593, 33.750000) rotate(-4.000000) translate(-233.924593, -33.750000) "></path>
        </g>
    </g>
</svg>
