<?xml version="1.0" encoding="iso-8859-1"?>
<!-- Generator: Adobe Illustrator 19.0.0, SVG Export Plug-In . SVG Version: 6.00 Build 0)  -->
<svg version="1.1" id="Capa_1" xmlns="http://www.w3.org/2000/svg" x="0px" y="0px"
     viewBox="0 0 512 512" style="enable-background:new 0 0 512 512;" xml:space="preserve" fill="black">
<g>
	<path d="M48,0L16,96v352h128v64h64l64-64h96l128-136.32V0H48z M464,288l-89.6,96H260.928L192,434.144V384H80
		V32h384V288z"/>
	<rect x="240" y="128" width="32" height="128"/>
	<rect x="336" y="128" width="32" height="128"/>
</g>
</svg>
